…
### Анализ точек доступа

#### 1. Определить небезопасные точки доступа (без шифрования – OPN)

``` r
unsafe_networks <- ap_data_final[ap_data_final$privacy == "OPN", ]
unsafe_networks
```

    # A tibble: 85 × 15
       bssid    first_time_seen     last_time_seen      channel speed privacy cipher
       <chr>    <dttm>              <dttm>                <int> <int> <fct>   <fct> 
     1 E8:28:C… 2023-07-28 09:13:03 2023-07-28 11:55:38       6   130 OPN     <NA>  
     2 E8:28:C… 2023-07-28 09:13:06 2023-07-28 11:55:12       6   130 OPN     <NA>  
     3 E8:28:C… 2023-07-28 09:13:06 2023-07-28 11:55:11       6   130 OPN     <NA>  
     4 E8:28:C… 2023-07-28 09:13:06 2023-07-28 11:55:10       6    -1 OPN     <NA>  
     5 00:25:0… 2023-07-28 09:13:06 2023-07-28 11:56:21      44    -1 OPN     <NA>  
     6 E8:28:C… 2023-07-28 09:13:09 2023-07-28 11:56:05      11   130 OPN     <NA>  
     7 E8:28:C… 2023-07-28 09:13:13 2023-07-28 10:27:06       6   130 OPN     <NA>  
     8 E8:28:C… 2023-07-28 09:13:13 2023-07-28 10:39:43       6   130 OPN     <NA>  
     9 E8:28:C… 2023-07-28 09:13:17 2023-07-28 11:52:32       1   130 OPN     <NA>  
    10 E8:28:C… 2023-07-28 09:13:50 2023-07-28 11:43:39      11   130 OPN     <NA>  
    # ℹ 75 more rows
    # ℹ 8 more variables: authentication <fct>, power <int>, beacons <int>,
    #   iv <int>, lan_ip <chr>, id_length <int>, essid <chr>, key <lgl>
…
        assign(oui_prefix, company_name, envir = vendor_cache)
        return(company_name)
    } else {
        assign(oui_prefix, "Неизвестный производитель", envir = vendor_cache)
        return("Неизвестный производитель")
    }
}

ap_data_enhanced <- ap_data_final
ap_data_enhanced$manufacturer <- sapply(ap_data_enhanced$bssid, identify_vendor)

ap_data_enhanced[, c("bssid", "manufacturer")]
```

    # A tibble: 167 × 2
       bssid             manufacturer             
       <chr>             <chr>                    
     1 BE:F1:71:D5:17:8B Неизвестный производитель
     2 6E:C7:EC:16:DA:1A Неизвестный производитель
     3 9A:75:A8:B9:04:1E Неизвестный производитель
     4 4A:EC:1E:DB:BF:95 Неизвестный производитель
     5 D2:6D:52:61:51:5D Неизвестный производитель
     6 E8:28:C1:DC:B2:52 Eltex Enterprise Ltd.    
     7 BE:F1:71:D6:10:D7 Неизвестный производитель
     8 0A:C5:E1:DB:17:7B Неизвестный производитель
     9 38:1A:52:0D:84:D7 Seiko Epson Corporation  
    10 BE:F1:71:D5:0E:53 Неизвестный производитель
    # ℹ 157 more rows
…
    result_list <- by(data, data$bssid, process_single_bssid)
    combined_result <- do.call(rbind, result_list)
    rownames(combined_result) <- NULL
    
    combined_result <- combined_result[order(-combined_result$session_duration_minutes), ]
    
    return(combined_result)
}

session_results <- merge_access_point_sessions(ap_data_enhanced)
session_results
```

    # A tibble: 167 × 18
       bssid    first_time_seen     last_time_seen      channel speed privacy cipher
       <chr>    <dttm>              <dttm>                <int> <int> <fct>   <fct> 
     1 00:25:0… 2023-07-28 09:13:06 2023-07-28 11:56:21      44    -1 OPN     <NA>  
     2 E8:28:C… 2023-07-28 09:13:09 2023-07-28 11:56:05      11   130 OPN     <NA>  
     3 E8:28:C… 2023-07-28 09:13:03 2023-07-28 11:55:38       6   130 OPN     <NA>  
     4 08:3A:2… 2023-07-28 09:13:27 2023-07-28 11:55:53      14    -1 WPA     <NA>  
     5 6E:C7:E… 2023-07-28 09:13:03 2023-07-28 11:55:12       1   130 WPA2    CCMP  
     6 E8:28:C… 2023-07-28 09:13:06 2023-07-28 11:55:12       6   130 OPN     <NA>  
     7 48:5B:3… 2023-07-28 09:13:06 2023-07-28 11:55:11       1   270 WPA2    CCMP  
     8 E8:28:C… 2023-07-28 09:13:06 2023-07-28 11:55:11       6   130 OPN     <NA>  
     9 E8:28:C… 2023-07-28 09:13:06 2023-07-28 11:55:10       6    -1 OPN     <NA>  
    10 8E:55:4… 2023-07-28 09:13:06 2023-07-28 11:55:09       6    65 WPA2    CCMP  
    # ℹ 157 more rows
    # ℹ 11 more variables: authentication <fct>, power <int>, beacons <int>,
    #   iv <int>, lan_ip <chr>, id_length <int>, essid <chr>, key <lgl>,
    #   manufacturer <chr>, session_id <dbl>, session_duration_minutes <dbl>
…
valid_beacon_data$observation_duration <- ifelse(
    valid_beacon_data$observation_duration <= 0, 0.1, valid_beacon_data$observation_duration
)

valid_beacon_data$beacons_per_minute <- valid_beacon_data$beacons / valid_beacon_data$observation_duration
valid_beacon_data$beacons_per_second <- valid_beacon_data$beacons_per_minute / 60
valid_beacon_data$beacons_per_hour <- valid_beacon_data$beacons / (valid_beacon_data$observation_duration / 60)

beacon_frequency_ranking <- valid_beacon_data[order(-valid_beacon_data$beacons_per_minute), ]
beacon_frequency_ranking
```

    # A tibble: 102 × 20
       bssid    first_time_seen     last_time_seen      channel speed privacy cipher
       <chr>    <dttm>              <dttm>                <int> <int> <fct>   <fct> 
     1 F2:30:A… 2023-07-28 10:27:02 2023-07-28 10:27:09       1   130 WPA2    CCMP  
     2 B2:CF:C… 2023-07-28 10:40:54 2023-07-28 10:40:59       6   180 WPA2    CCMP  
     3 3A:DA:0… 2023-07-28 10:27:01 2023-07-28 10:27:10       6   130 WPA3 W… CCMP  
     4 02:BC:1… 2023-07-28 09:24:46 2023-07-28 09:24:48      11   130 OPN     <NA>  
     5 00:3E:1… 2023-07-28 10:34:03 2023-07-28 10:34:05      11   130 OPN     <NA>  
     6 76:C5:A… 2023-07-28 11:16:36 2023-07-28 11:16:38       6   130 WPA3 W… CCMP  
     7 D2:25:9… 2023-07-28 09:45:29 2023-07-28 09:45:42      12   180 WPA2    CCMP  
     8 BE:F1:7… 2023-07-28 09:13:03 2023-07-28 11:50:44      11   195 WPA2    CCMP  
     9 76:E4:E… 2023-07-28 09:18:50 2023-07-28 09:18:50      13   180 WPA2    CCMP  
    10 C2:B5:D… 2023-07-28 09:32:42 2023-07-28 09:32:42       6   130 WPA2    CCMP  
    # ℹ 92 more rows
    # ℹ 13 more variables: authentication <fct>, power <int>, beacons <int>,
    #   iv <int>, lan_ip <chr>, id_length <int>, essid <chr>, key <lgl>,
    #   manufacturer <chr>, observation_duration <dbl>, beacons_per_minute <dbl>,
    #   beacons_per_second <dbl>, beacons_per_hour <dbl>
…
#### 1. Определить производителя для каждого обнаруженного устройства

Для этого воспользуемся функцией, написанной нами для поиска
производителей точек доступа:

``` r
valid_stations <- stations_data_final[
    !is.na(stations_data_final$bssid) & stations_data_final$bssid != "(not associated)", ]

valid_stations$manufacturer <- sapply(valid_stations$bssid, identify_vendor)

valid_stations[, c("bssid", "manufacturer")]
```

    # A tibble: 186 × 2
       bssid             manufacturer                 
       <chr>             <chr>                        
     1 BE:F1:71:D5:17:8B Неизвестный производитель    
     2 BE:F1:71:D6:10:D7 Неизвестный производитель    
     3 BE:F1:71:D5:17:8B Неизвестный производитель    
     4 1E:93:E3:1B:3C:F4 Неизвестный производитель    
     5 E8:28:C1:DC:FF:F2 Eltex Enterprise Ltd.        
     6 00:25:00:FF:94:73 Apple, Inc.                  
     7 00:26:99:F2:7A:E2 Cisco Systems, Inc           
     8 0C:80:63:A9:6E:EE TP-LINK TECHNOLOGIES CO.,LTD.
     9 E8:28:C1:DD:04:52 Eltex Enterprise Ltd.        
    10 0A:C5:E1:DB:17:7B Неизвестный производитель    
    # ℹ 176 more rows

#### 2. Обнаружить устройства, которые НЕ рандомизируют свой MAC адрес

``` r
non_random_indicators <- c("A", "a", "E", "e", "2", "6")

devices_without_randomization <- valid_stations[
    !substr(valid_stations$station_mac, 2, 2) %in% non_random_indicators, ]
devices_without_randomization
```

    # A tibble: 59 × 8
       station_mac       first_time_seen     last_time_seen      power packets bssid
       <chr>             <dttm>              <dttm>              <int>   <int> <chr>
     1 5C:3A:45:9E:1A:7B 2023-07-28 09:13:03 2023-07-28 11:51:54   -39     432 BE:F…
     2 C0:E4:34:D8:E7:E5 2023-07-28 09:13:03 2023-07-28 11:53:16   -61     958 BE:F…
     3 68:54:5A:40:35:9E 2023-07-28 09:13:06 2023-07-28 11:50:50   -31     163 1E:9…
     4 74:4C:A1:70:CE:F7 2023-07-28 09:13:06 2023-07-28 09:20:01   -71       3 E8:2…
     5 4C:44:5B:14:76:E3 2023-07-28 09:13:09 2023-07-28 09:47:44    -1      71 E8:2…
     6 A0:E7:0B:AE:D5:44 2023-07-28 09:13:09 2023-07-28 11:34:42   -37     125 0A:C…
     7 48:68:4A:93:DF:B4 2023-07-28 09:13:13 2023-07-28 11:50:22   -48     122 1E:9…
     8 28:7F:CF:23:25:53 2023-07-28 09:13:14 2023-07-28 11:51:50   -37     156 9A:7…
     9 8C:55:4A:DE:F2:38 2023-07-28 09:13:17 2023-07-28 11:56:16   -65     117 8A:A…
    10 88:D8:2E:4F:9B:1A 2023-07-28 09:13:19 2023-07-28 11:51:24   -29     240 4A:E…
    # ℹ 49 more rows
    # ℹ 2 more variables: probed_essids <chr>, manufacturer <chr>
…
