…
#### Вопрос 5: Найти самого высокого персонажа

    > starwars %>%
    +     filter(height == max(height,na.rm = TRUE)) %>%
    +     pull(name)
    [1] "Yarael Poof"

#### Вопрос 6: Найти всех персонажей ниже 170

    > starwars %>%
    +     filter(height < 170) %>%
    +     select(name, height)
    # A tibble: 22 × 2
       name                  height
       <chr>                  <int>
     1 C-3PO                    167
     2 R2-D2                     96
     3 Leia Organa              150
     4 Beru Whitesun Lars       165
     5 R5-D4                     97
     6 Yoda                      66
     7 Mon Mothma               150
     8 Wicket Systri Warrick     88
     9 Nien Nunb                160
    10 Watto                    137
    # ℹ 12 more rows
    # ℹ Use `print(n = ...)` to see more rows
    > 
    > 

#### Вопрос 7: Подсчитать ИМТ (индекс массы тела) для всех персонажей.

    > starwars %>%
    +     mutate(height_m = height / 100,bmi = mass / (height_m)^2) %>%
    +     select(name, mass, height, bmi)
    # A tibble: 87 × 4
       name                mass height   bmi
       <chr>              <dbl>  <int> <dbl>
     1 Luke Skywalker        77    172  26.0
     2 C-3PO                 75    167  26.9
     3 R2-D2                 32     96  34.7
     4 Darth Vader          136    202  33.3
     5 Leia Organa           49    150  21.8
     6 Owen Lars            120    178  37.9
     7 Beru Whitesun Lars    75    165  27.5
     8 R5-D4                 32     97  34.0
     9 Biggs Darklighter     84    183  25.1
    10 Obi-Wan Kenobi        77    182  23.2
    # ℹ 77 more rows
    # ℹ Use `print(n = ...)` to see more rows
…
#### Вопрос 11: Подсчитать среднюю длину имени в каждой расе вселенной Звездных войн.

    > starwars %>%
    +     filter(!is.na(species), !is.na(name)) %>%
    +     group_by(species) %>%
    +     summarise(
    +         count = n(),
    +         avg_length = mean(nchar(name)),
    +         .groups = "drop"
    +     )
    # A tibble: 37 × 3
       species   count avg_length
       <chr>     <int>      <dbl>
     1 Aleena        1      12   
     2 Besalisk      1      15   
     3 Cerean        1      12   
     4 Chagrian      1      10   
     5 Clawdite      1      10   
     6 Droid         6       4.83
     7 Dug           1       7   
     8 Ewok          1      21   
     9 Geonosian     1      17   
    10 Gungan        3      11.7 
    # ℹ 27 more rows
    # ℹ Use `print(n = ...)` to see more rows
…
